2803 Acer ASUS(A88XM-A) 800W Kingston(16GB) gtx-1060ti Toshiba(500GB) HyperX
3135 Asus BIOSTAR(A320MH) 600W HyperX(32GB) rtx-2070 2TB ASRock
2133 Corsair Gigabyte(GA-N3160N) 450W Crucial(8GB) gtx-1050 WD(1TB) MSI
